Debug						0
InputFilePath					./output.root
OutputFileName					./ana_1.root
CalculateOpticalFunctions			1
CalculateOpticalFunctionsFileName		./ana_1.dat
# Object	treeName	Histogram Name           # Bins     Binning	       Variable                 Selection
Histogram1D    Beam.          X0                       {10}        {-1e-3:1e-3}     Beam.GMAD::BeamBase.X0         1
Histogram1D	Event.		Primaryx                 {100}       {-5e-6:5e-6}     Primary.x                      1
Histogram1D	Event.		Primaryy                 {100}       {-5e-6:5e-6}     Primary.y                      1
Histogram1D	Options.	seedState                {200}       {0:200}          Options.GMAD::OptionsBase.seed 1
Histogram1D    Model.         componentLength          {100}       {0.0:100}        Model.length                   1
Histogram1D    Run.           runDuration              {1000}      {0:1000}         Info.duration                  1
Histogram2D    Event.         PrimaryPhaseSpace        {50,50}     {-5e-6:5e-6,-5e-6:5e-6}            Primary.x:Primary.y           1
Histogram3D    Event.         PrimaryPhaseSpace3D      {50,50,50}  {-5e-6:5e-6,-5e-6:5e-6,-5e-6:5e-6} Primary.x:Primary.y:Primary.z 1
